Size : 128 | Boucles : 10 | Calculs par boucle : 1
GPU -- min: 0.00429969998421 | max: 0.00592333807042 | avg: 0.00455893731249
CPU -- min: 0.000350939523133 | max: 0.00460484762356 | avg: 0.000831122690668
Size : 256 | Boucles : 10 | Calculs par boucle : 1
GPU -- min: 0.01495855045 | max: 0.0169726038213 | avg: 0.0154842886468
CPU -- min: 0.0032172745934 | max: 0.00422074846045 | avg: 0.00339400757935
Size : 512 | Boucles : 10 | Calculs par boucle : 1
GPU -- min: 0.0597497236697 | max: 0.0620602400126 | avg: 0.0609238512553
CPU -- min: 0.023003315964 | max: 0.0240391599558 | avg: 0.0234339965261
Size : 1024 | Boucles : 10 | Calculs par boucle : 1
GPU -- min: 0.238926654034 | max: 0.262128533081 | avg: 0.247393218064
CPU -- min: 0.173981525343 | max: 0.195076582978 | avg: 0.179507539871
Size : 2048 | Boucles : 10 | Calculs par boucle : 1
GPU -- min: 0.964211669035 | max: 1.01832504342 | avg: 0.97408885994
CPU -- min: 1.35726551397 | max: 1.38683641244 | avg: 1.3687252487
Size : 4096 | Boucles : 10 | Calculs par boucle : 1
GPU -- min: 3.84111755882 | max: 3.98627072477 | avg: 3.88734000474
CPU -- min: 10.8165395547 | max: 10.8723314385 | avg: 10.8352892784

